<?xml version="1.0" encoding="utf-8"?>
<!-- Generator: Adobe Illustrator 16.0.4, SVG Export Plug-In . SVG Version: 6.00 Build 0)  -->
<!DOCTYPE svg PUBLIC "-//W3C//DTD SVG 1.1//EN" "http://www.w3.org/Graphics/SVG/1.1/DTD/svg11.dtd">
<svg version="1.1" id="Ebene_1" xmlns="http://www.w3.org/2000/svg" xmlns:xlink="http://www.w3.org/1999/xlink" x="0px" y="0px"
	 width="87px" height="48px" viewBox="0 0 87 48" enable-background="new 0 0 87 48" xml:space="preserve">
<rect x="23.984" y="3.248" fill-rule="evenodd" clip-rule="evenodd" fill="#F20A1E" width="0.784" height="44.752"/>
<rect x="62.115" y="3.248" fill-rule="evenodd" clip-rule="evenodd" fill="#F20A1E" width="0.784" height="44.752"/>
<rect x="23.984" y="3.248" fill="none" stroke="#E2000F" stroke-width="0.0639" stroke-miterlimit="22.926" width="0.784" height="44.752"/>
<rect y="3.247" fill-rule="evenodd" clip-rule="evenodd" fill="#F20A1E" width="0.783" height="44.752"/>
<rect y="3.247" fill="none" stroke="#E2000F" stroke-width="0.0639" stroke-miterlimit="22.926" width="0.783" height="44.752"/>
<rect x="86.081" y="3.248" fill-rule="evenodd" clip-rule="evenodd" fill="#F20A1E" width="0.782" height="44.752"/>
<rect x="86.081" y="3.248" fill="none" stroke="#E2000F" stroke-width="0.0639" stroke-miterlimit="22.926" width="0.782" height="44.752"/>
<path fill-rule="evenodd" clip-rule="evenodd" fill="#F20A1E" d="M45.287,11.931h1.531L47.8,10.21
	c0.004,0.004,0.951,1.752,0.951,1.752h2.272L43.461,25.68l-5.044-9.385h-0.017l-2.338-4.353l2.301-0.022l0.993,1.875l0.939-1.8
	l1.537,0.005c0,0,1.734-10.924,1.779-11.109L45.287,11.931z"/>
<path fill="none" stroke="#FFFFFF" stroke-width="0.0639" stroke-miterlimit="22.926" d="M45.287,11.931h1.531L47.8,10.21
	c0.004,0.004,0.951,1.752,0.951,1.752h2.272L43.461,25.68l-5.044-9.385h-0.017l-2.338-4.353l2.301-0.022l0.993,1.875l0.939-1.8
	l1.537,0.005c0,0,1.734-10.924,1.779-11.109L45.287,11.931z"/>
<polygon fill-rule="evenodd" clip-rule="evenodd" fill="#2A3186" points="33.309,9.349 43.443,28.133 53.687,9.42 57.797,9.423 
	43.447,35.616 29.261,9.341 "/>
<polygon fill="none" stroke="#004798" stroke-width="0.0639" stroke-miterlimit="22.926" points="33.309,9.349 43.443,28.133 
	53.687,9.42 57.797,9.423 43.447,35.616 29.261,9.341 "/>
<path fill-rule="evenodd" clip-rule="evenodd" fill="#F20A1E" d="M53.869,19.396c0.911,1.679,1.429,3.602,1.429,5.644
	c0,6.55-5.308,11.856-11.854,11.856c-6.548,0-11.855-5.306-11.855-11.856c0-2.082,0.536-4.039,1.479-5.74l-1.991-3.651
	c-1.996,2.615-3.18,5.881-3.18,9.423c0,8.587,6.961,15.546,15.547,15.546s15.546-6.959,15.546-15.546
	c0-3.48-1.143-6.692-3.076-9.283L53.869,19.396z"/>
<path fill="none" stroke="#E2000F" stroke-width="0.0639" stroke-miterlimit="22.926" d="M53.869,19.396
	c0.911,1.679,1.429,3.602,1.429,5.644c0,6.55-5.308,11.856-11.854,11.856c-6.548,0-11.855-5.306-11.855-11.856
	c0-2.082,0.536-4.039,1.479-5.74l-1.991-3.651c-1.996,2.615-3.18,5.881-3.18,9.423c0,8.587,6.961,15.546,15.547,15.546
	s15.546-6.959,15.546-15.546c0-3.48-1.143-6.692-3.076-9.283L53.869,19.396z"/>
<polygon fill-rule="evenodd" clip-rule="evenodd" fill="#2A3186" points="81.186,9.108 68.566,9.108 68.167,9.108 68.167,9.508 
	68.167,35.577 68.167,35.978 68.566,35.978 71.814,35.978 72.215,35.978 72.215,35.577 72.215,23.185 80.874,23.185 81.272,23.185 
	81.272,22.785 81.272,19.81 81.272,19.411 80.874,19.411 72.215,19.411 72.215,12.878 81.186,12.878 81.584,12.878 81.584,12.479 
	81.584,9.508 81.584,9.108 "/>
<polygon fill="none" stroke="#004798" stroke-width="0.0639" stroke-miterlimit="22.926" points="81.186,9.108 68.566,9.108 
	68.167,9.108 68.167,9.508 68.167,35.577 68.167,35.978 68.566,35.978 71.814,35.978 72.215,35.978 72.215,35.577 72.215,23.185 
	80.874,23.185 81.272,23.185 81.272,22.785 81.272,19.81 81.272,19.411 80.874,19.411 72.215,19.411 72.215,12.878 81.186,12.878 
	81.584,12.878 81.584,12.479 81.584,9.508 81.584,9.108 "/>
<path fill-rule="evenodd" clip-rule="evenodd" fill="#2A3186" d="M22.25,35.344l-7.847-10.82c3.537-0.723,5.952-3.752,5.952-7.583
	c0-2.739-1.385-5.256-3.618-6.568c-2.232-1.265-4.921-1.265-7.083-1.265l-3.94,0H5.315v0.4v26.069v0.4h0.399h3.249h0.399v-0.4
	V24.948h0.741l7.556,10.857l0.119,0.172h0.208h3.94h0.784L22.25,35.344z M16.515,17.078c0,3.023-2.009,4.372-6.515,4.372H9.362
	v-8.64h0.466C14.39,12.81,16.515,14.167,16.515,17.078z"/>
<path fill="none" stroke="#004798" stroke-width="0.0639" stroke-miterlimit="22.926" d="M22.25,35.344l-7.847-10.82
	c3.537-0.723,5.952-3.752,5.952-7.583c0-2.739-1.385-5.256-3.618-6.568c-2.232-1.265-4.921-1.265-7.083-1.265l-3.94,0H5.315v0.4
	v26.069v0.4h0.399h3.249h0.399v-0.4V24.948h0.741l7.556,10.857l0.119,0.172h0.208h3.94h0.784L22.25,35.344z M16.515,17.078
	c0,3.023-2.009,4.372-6.515,4.372H9.362v-8.64h0.466C14.39,12.81,16.515,14.167,16.515,17.078z"/>
</svg>
